<?xml version="1.0" encoding="UTF-8"?>
<svg width="22px" height="22px" viewBox="0 0 22 22" version="1.1" xmlns="http://www.w3.org/2000/svg" xmlns:xlink="http://www.w3.org/1999/xlink">
    <!-- Generator: Sketch 46.1 (44463) - http://www.bohemiancoding.com/sketch -->
    <title>icon/access to tests</title>
    <desc>Created with Sketch.</desc>
    <defs></defs>
    <g id="Symbols" stroke="none" stroke-width="1" fill="none" fill-rule="evenodd">
        <g id="icon/access-to-tests">
            <rect id="Rectangle" x="0" y="0" width="22" height="22"></rect>
            <path d="M5.95,1.0001 L5.95,4.7441 L2,4.7441 L2,15.6281 L15.599,15.6281 L15.599,1.0001 L5.95,1.0001 Z M2.344,3.7441 L4.95,3.7441 L4.95,1.1381 L2.344,3.7441 Z M16.315,3.4891 L16.315,16.5201 L4.709,16.5201 L4.709,18.1171 L17.807,18.1171 L17.807,3.4891 L16.315,3.4891 Z M18.659,5.8011 L18.659,18.8331 L7.052,18.8331 L7.052,20.4291 L20.151,20.4291 L20.151,5.8011 L18.659,5.8011 Z" id="Page-1" fill="#373737"></path>
        </g>
    </g>
</svg>