<?xml version="1.0" encoding="UTF-8"?>
<svg width="22px" height="22px" viewBox="0 0 22 22" version="1.1" xmlns="http://www.w3.org/2000/svg" xmlns:xlink="http://www.w3.org/1999/xlink">
    <!-- Generator: Sketch 46.1 (44463) - http://www.bohemiancoding.com/sketch -->
    <title>icon/clients</title>
    <desc>Created with Sketch.</desc>
    <defs></defs>
    <g id="Symbols" stroke="none" stroke-width="1" fill="none" fill-rule="evenodd">
        <g id="icon/clients">
            <rect id="Rectangle" x="0" y="0" width="22" height="22"></rect>
            <path d="M15.714,11.406 C16.424,12.561 17.159,13.912 17.159,15.36 L17.159,20.229 L20.159,20.229 L20.159,16.625 C20.159,13.9 18.373,11.668 15.714,11.406 M8.528,9.516 C4.938,9.516 2,12.453 2,16.044 L2,20.229 L15.057,20.229 L15.057,16.044 C15.057,12.453 12.119,9.516 8.528,9.516 M18.055,7.153 C18.055,5.773 16.936,4.653 15.555,4.653 C14.174,4.653 13.055,5.773 13.055,7.153 C13.055,8.534 14.174,9.653 15.555,9.653 C16.936,9.653 18.055,8.534 18.055,7.153 M8.402,7.764 C10.27,7.764 11.784,6.25 11.784,4.382 C11.784,2.514 10.27,1 8.402,1 C6.535,1 5.02,2.514 5.02,4.382 C5.02,6.25 6.535,7.764 8.402,7.764" id="Fill-1" fill="#373737"></path>
        </g>
    </g>
</svg>