<?xml version="1.0" encoding="UTF-8"?>
<svg width="22px" height="22px" viewBox="0 0 22 22" version="1.1" xmlns="http://www.w3.org/2000/svg" xmlns:xlink="http://www.w3.org/1999/xlink">
    <!-- Generator: Sketch 46.1 (44463) - http://www.bohemiancoding.com/sketch -->
    <title>icon/edit</title>
    <desc>Created with Sketch.</desc>
    <defs></defs>
    <g id="Symbols" stroke="none" stroke-width="1" fill="none" fill-rule="evenodd">
        <g id="icon/edit">
            <g id="edit">
                <polygon id="Fill-1" points="0 22 22 22 22 0 0 0"></polygon>
                <path d="M19.78766,6.32412 L15.6289267,2.16538667 L16.8741267,0.920186667 C17.46226,0.332053333 18.01226,0.389986667 18.6003933,0.97812 L20.9177267,3.29545333 C21.50586,3.88358667 21.6209933,4.49078667 21.03286,5.07892 L19.78766,6.32412 Z M14.936,2.85860667 L19.0947333,7.01734 L11.0662,15.04514 L7.07686667,15.6376733 C6.58626667,15.69634 6.27093333,15.3810067 6.33033333,14.89114 L6.90746667,10.88714 L14.936,2.85860667 Z M19.0115467,10.58354 C19.0115467,10.0312553 19.4592619,9.58354 20.0115467,9.58354 C20.5638314,9.58354 21.0115467,10.0312553 21.0115467,10.58354 L21.0115467,18.4668733 C21.0115467,19.6806247 20.0277647,20.6644067 18.8140133,20.6644067 L3.21088,20.6644067 C1.99712858,20.6644067 1.01334667,19.6806247 1.01334667,18.4668733 L1.01334667,4.03414 C1.01334667,2.82038858 1.99712858,1.83660667 3.21088,1.83660667 L10.6960133,1.83660667 C11.2482981,1.83660667 11.6960133,2.28432192 11.6960133,2.83660667 C11.6960133,3.38889142 11.2482981,3.83660667 10.6960133,3.83660667 L3.21088,3.83660667 C3.10169808,3.83660667 3.01334667,3.92495808 3.01334667,4.03414 L3.01334667,18.4668733 C3.01334667,18.5760553 3.10169808,18.6644067 3.21088,18.6644067 L18.8140133,18.6644067 C18.9231953,18.6644067 19.0115467,18.5760553 19.0115467,18.4668733 L19.0115467,10.58354 Z" id="Combined-Shape" fill="#DEDFE3"></path>
            </g>
        </g>
    </g>
</svg>