<?xml version="1.0" encoding="UTF-8"?>
<svg width="22px" height="22px" viewBox="0 0 22 22" version="1.1" xmlns="http://www.w3.org/2000/svg" xmlns:xlink="http://www.w3.org/1999/xlink">
    <!-- Generator: Sketch 46.1 (44463) - http://www.bohemiancoding.com/sketch -->
    <title>icon/email grey</title>
    <desc>Created with Sketch.</desc>
    <defs></defs>
    <g id="Symbols" stroke="none" stroke-width="1" fill="none" fill-rule="evenodd">
        <g id="icon/email-grey" fill="#DEDFE3">
            <path d="M18.2,4 L3.8,4 C2.81,4 2.009,4.84375 2.009,5.875 L2,17.125 C2,18.15625 2.81,19 3.8,19 L18.2,19 C19.19,19 20,18.15625 20,17.125 L20,5.875 C20,4.84375 19.19,4 18.2,4 L18.2,4 Z M18.2,7.75 L11,12.4375 L3.8,7.75 L3.8,5.875 L11,10.5625 L18.2,5.875 L18.2,7.75 L18.2,7.75 Z" id="Shape"></path>
        </g>
    </g>
</svg>