<?xml version="1.0" encoding="UTF-8"?>
<svg width="22px" height="22px" viewBox="0 0 22 22" version="1.1" xmlns="http://www.w3.org/2000/svg" xmlns:xlink="http://www.w3.org/1999/xlink">
    <!-- Generator: Sketch 46.1 (44463) - http://www.bohemiancoding.com/sketch -->
    <title>icon/progress</title>
    <desc>Created with Sketch.</desc>
    <defs></defs>
    <g id="Symbols" stroke="none" stroke-width="1" fill="none" fill-rule="evenodd">
        <g id="icon/progress" fill="#373737">
            <g id="Page-1" transform="translate(1.000000, 3.000000)">
                <polygon id="Fill-1" points="0 17.181 5.5 17.181 5.5 10.366 0 10.366"></polygon>
                <polygon id="Fill-2" points="6.997 17.181 12.498 17.181 12.498 5.097 6.997 5.097"></polygon>
                <polygon id="Fill-3" points="13.994 17.181 19.494 17.181 19.494 0 13.994 0"></polygon>
            </g>
        </g>
    </g>
</svg>