<?xml version="1.0" encoding="UTF-8"?>
<svg width="19px" height="19px" viewBox="0 0 19 19" version="1.1" xmlns="http://www.w3.org/2000/svg" xmlns:xlink="http://www.w3.org/1999/xlink">
    <!-- Generator: Sketch 46.1 (44463) - http://www.bohemiancoding.com/sketch -->
    <title>icon/tick</title>
    <desc>Created with Sketch.</desc>
    <defs></defs>
    <g id="Symbols" stroke="none" stroke-width="1" fill="none" fill-rule="evenodd">
        <g id="icon/tick">
            <g id="tick">
                <path d="M18.2692308,9.13461538 C18.2692308,14.1798462 14.1798462,18.2692308 9.13461538,18.2692308 C4.08938462,18.2692308 0,14.1798462 0,9.13461538 C0,4.08938462 4.08938462,0 9.13461538,0 C14.1798462,0 18.2692308,4.08938462 18.2692308,9.13461538" id="Fill-1" fill="#78D44F"></path>
                <polyline id="Stroke-3" stroke="#FFFFFF" stroke-width="2" points="13.7555615 6.44786923 8.21194615 11.9914846 5.28594615 9.06548462"></polyline>
            </g>
        </g>
    </g>
</svg>