<?xml version="1.0" encoding="UTF-8"?>
<svg width="11px" height="11px" viewBox="0 0 11 11" version="1.1" xmlns="http://www.w3.org/2000/svg" xmlns:xlink="http://www.w3.org/1999/xlink">
    <!-- Generator: Sketch 46.1 (44463) - http://www.bohemiancoding.com/sketch -->
    <title>close-circle</title>
    <desc>Created with Sketch.</desc>
    <defs></defs>
    <g id="Symbols" stroke="none" stroke-width="1" fill="none" fill-rule="evenodd">
        <g id="section/select-assessment" transform="translate(-79.000000, -357.000000)" fill="#FFFFFF">
            <g id="button/selected-test" transform="translate(27.000000, 344.000000)">
                <path d="M59.4481579,19.8147895 C59.6745263,20.0411579 59.6745263,20.4076316 59.4481579,20.6334211 C59.3352632,20.7463158 59.1870526,20.8030526 59.0388421,20.8030526 C58.8906316,20.8030526 58.7424211,20.7463158 58.6295263,20.6334211 L57.4015789,19.4054737 L56.1736316,20.6334211 C56.0601579,20.7463158 55.9125263,20.8030526 55.7643158,20.8030526 C55.6161053,20.8030526 55.4678947,20.7463158 55.355,20.6334211 C55.1286316,20.4076316 55.1286316,20.0411579 55.355,19.8147895 L56.5829474,18.5862632 L55.355,17.3583158 C55.1286316,17.1319474 55.1286316,16.7654737 55.355,16.5396842 C55.5807895,16.3133158 55.9472632,16.3133158 56.1736316,16.5396842 L57.4015789,17.7676316 L58.6295263,16.5396842 C58.8558947,16.3133158 59.2217895,16.3133158 59.4481579,16.5396842 C59.6745263,16.7654737 59.6745263,17.1319474 59.4481579,17.3583158 L58.2202105,18.5862632 L59.4481579,19.8147895 Z M57.5,13 C54.4622632,13 52,15.4622632 52,18.5 C52,21.5377368 54.4622632,24 57.5,24 C60.5371579,24 63,21.5377368 63,18.5 C63,15.4622632 60.5371579,13 57.5,13 L57.5,13 Z" id="close-circle"></path>
            </g>
        </g>
    </g>
</svg>