<?xml version="1.0" encoding="UTF-8"?>
<svg width="22px" height="22px" viewBox="0 0 22 22" version="1.1" xmlns="http://www.w3.org/2000/svg" xmlns:xlink="http://www.w3.org/1999/xlink">
    <!-- Generator: Sketch 46.1 (44463) - http://www.bohemiancoding.com/sketch -->
    <title>dropdown</title>
    <desc>Created with Sketch.</desc>
    <defs>
        <polygon id="path-1" points="0 11.626 20.425 11.626 20.425 0 0 0"></polygon>
    </defs>
    <g id="Symbols" stroke="none" stroke-width="1" fill="none" fill-rule="evenodd">
        <g id="dropdown">
            <rect id="Rectangle-12" x="0" y="0" width="22" height="22"></rect>
            <g id="Page-1" transform="translate(1.000000, 6.000000)">
                <mask id="mask-2" fill="white">
                    <use xlink:href="#path-1"></use>
                </mask>
                <g id="Clip-2"></g>
            </g>
            <path d="M10.66325,15.0775 L4.29325,8.7065 C3.90225,8.3165 3.90225,7.6835 4.29325,7.2925 C4.68425,6.9025 5.31625,6.9025 5.70725,7.2925 L10.66325,12.2495 L15.62025,7.2925 C16.01125,6.9025 16.64325,6.9025 17.03425,7.2925 C17.42525,7.6835 17.42525,8.3165 17.03425,8.7065 L10.66325,15.0775 Z" id="Fill-1" fill="#949494"></path>
        </g>
    </g>
</svg>