<?xml version="1.0" encoding="UTF-8"?>
<svg width="47px" height="46px" viewBox="0 0 47 46" version="1.1" xmlns="http://www.w3.org/2000/svg" xmlns:xlink="http://www.w3.org/1999/xlink">
    <!-- Generator: Sketch 46.1 (44463) - http://www.bohemiancoding.com/sketch -->
    <title>novopsych-logo</title>
    <desc>Created with Sketch.</desc>
    <defs>
        <polygon id="path-1" points="5.33447444e-05 0.000158333333 17.8923103 0.000158333333 17.8923103 18.8975583 5.33447443e-05 18.8975583 5.33447444e-05 0.000158333333"></polygon>
    </defs>
    <g id="Proto---general" stroke="none" stroke-width="1" fill="none" fill-rule="evenodd">
        <g id="Home-main" transform="translate(-24.000000, -53.000000)">
            <g id="novopsych-logo" transform="translate(24.000000, 53.000000)">
                <g id="Page-1" fill="#FFFFFF" opacity="0.25">
                    <path d="M23.3462941,0.00012 C33.8527856,0.00012 42.3697432,9.82532 42.3697432,21.94492 C42.3697432,34.06492 33.8527856,43.89012 23.3462941,43.89012 C12.8398025,43.89012 4.32284492,34.06492 4.32284492,21.94492 C4.32284492,9.82532 12.8398025,0.00012 23.3462941,0.00012" id="Fill-1"></path>
                    <path d="M2.26054068,37.01756 C-2.99270508,27.87996 1.22136271,15.55996 11.6732864,9.49996 C22.1248119,3.44036 34.8562356,5.93516 40.1090831,15.07276 C45.3623288,24.20996 41.148261,36.52996 30.6967356,42.58996 C20.2452102,48.64996 7.51378644,46.15516 2.26054068,37.01756" id="Fill-3"></path>
                    <path d="M44.4320475,37.01756 C49.6852932,27.87996 45.4712254,15.55996 35.0193017,9.49996 C24.5677763,3.44036 11.8363525,5.93516 6.58350508,15.07276 C1.33025932,24.20996 5.54432712,36.52996 15.9958525,42.58996 C26.447378,48.64996 39.1788017,46.15516 44.4320475,37.01756" id="Fill-6"></path>
                </g>
                <g id="Page-1" transform="translate(15.000000, 16.000000)">
                    <mask id="mask-2" fill="white">
                        <use xlink:href="#path-1"></use>
                    </mask>
                    <g id="Clip-2"></g>
                    <path d="M12.5616103,0.803636667 C10.2017483,-0.295196667 7.08619655,-0.22458 4.86785172,0.75582 C2.66347241,1.72988667 0.86067931,3.78410333 0.221989655,6.15498667 C-0.366424138,8.33967 0.259851724,10.66907 1.57323103,12.45317 C1.9115069,12.9126533 2.29261034,13.33857 2.70319655,13.7312367 L3.17802414,16.2338533 L10.5350586,18.8976533 L10.8910241,17.5657533 L15.3215069,17.0410367 C15.3215069,17.0410367 16.3102655,15.95107 16.2705414,15.34592 L16.2717828,14.2157367 L16.666231,13.6504867 L16.3102655,12.19762 L17.8924034,11.3096867 L15.6377483,7.67720333 C15.5955414,7.60880333 15.8130931,7.02170333 15.8295414,6.92987 C15.9409552,6.30983667 15.9539897,5.66922 15.8605759,5.04602 C15.5489897,2.97153667 14.2483345,1.58897 12.5616103,0.803636667" id="Fill-1" fill="#FFFFFF" mask="url(#mask-2)"></path>
                </g>
            </g>
        </g>
    </g>
</svg>