<?xml version="1.0" encoding="UTF-8"?>
<svg width="20px" height="24px" viewBox="0 0 20 24" version="1.1" xmlns="http://www.w3.org/2000/svg" xmlns:xlink="http://www.w3.org/1999/xlink">
    <!-- Generator: Sketch 46.1 (44463) - http://www.bohemiancoding.com/sketch -->
    <title>Group</title>
    <desc>Created with Sketch.</desc>
    <defs></defs>
    <g id="Symbols" stroke="none" stroke-width="1" fill="none" fill-rule="evenodd">
        <g id="assessments" transform="translate(-41.000000, -7.000000)">
            <g id="Group" transform="translate(41.000000, 8.000000)">
                <path d="M14.1763,5.1667 L16.3343,5.1667 C17.5763,5.1667 18.5833,6.0617 18.5833,7.1667 L18.5833,20.4997 C18.5833,21.6047 17.5763,22.4997 16.3343,22.4997 L2.7483,22.4997 C1.5063,22.4997 0.5003,21.6047 0.5003,20.4997 L0.5003,7.1667 C0.5003,6.0617 1.5063,5.1667 2.7483,5.1667 L4.9323,5.1667" id="Fill-1" fill="#FFFFFF"></path>
                <path d="M14.1763,5.1667 L16.3343,5.1667 C17.5763,5.1667 18.5833,6.0617 18.5833,7.1667 L18.5833,20.4997 C18.5833,21.6047 17.5763,22.4997 16.3343,22.4997 L2.7483,22.4997 C1.5063,22.4997 0.5003,21.6047 0.5003,20.4997 L0.5003,7.1667 C0.5003,6.0617 1.5063,5.1667 2.7483,5.1667 L4.9323,5.1667" id="Stroke-3" stroke="#949494"></path>
                <path d="M12.5356,3.6205 L13.5736,3.6205 C14.1076,3.6205 14.5416,4.0545 14.5416,4.5895 L14.5416,6.6515 C14.5416,7.1865 14.1076,7.6205 13.5736,7.6205 L5.5106,7.6205 C4.9756,7.6205 4.5416,7.1865 4.5416,6.6515 L4.5416,4.5895 C4.5416,4.0545 4.9756,3.6205 5.5106,3.6205 L6.5476,3.6205 L6.5416,3.4785 C6.5416,1.8335 7.8756,0.4995 9.5206,0.4995 L9.5626,0.4995 C11.2076,0.4995 12.5416,1.8335 12.5416,3.4785 L12.5356,3.6205 Z" id="Stroke-5" stroke="#949494"></path>
                <path d="M10.5417,3.562 C10.5417,4.114 10.0937,4.562 9.5417,4.562 C8.9897,4.562 8.5417,4.114 8.5417,3.562 C8.5417,3.01 8.9897,2.562 9.5417,2.562 C10.0937,2.562 10.5417,3.01 10.5417,3.562" id="Fill-7" fill="#949494"></path>
            </g>
        </g>
    </g>
</svg>